target_variant_id,assay_id1,assay_id2,assay_id1_exported_result,assay_id2_exported_result,target_variant_result
CYP2D6_rs5030865,CYP2D6_rs5030865_1,CYP2D6_rs5030865_2,G:G,G:G,G:G
CYP2D6_rs5030865,CYP2D6_rs5030865_1,CYP2D6_rs5030865_2,T:T,Missing,T:T
CYP2D6_rs5030865,CYP2D6_rs5030865_1,CYP2D6_rs5030865_2,T:T,A:A,T:A
CYP2D6_rs5030865,CYP2D6_rs5030865_1,CYP2D6_rs5030865_2,G:G,G:A,G:A
CYP2D6_rs5030865,CYP2D6_rs5030865_1,CYP2D6_rs5030865_2,G:T,G:G,G:T
CYP2D6_rs5030865,CYP2D6_rs5030865_1,CYP2D6_rs5030865_2,Missing,A:A,A:A
CYP2D6_xN,CYP2D6_xN_1,CYP2D6_xN_2,G:G,C:C,no duplication
CYP2D6_xN,CYP2D6_xN_1,CYP2D6_xN_2,G:G,C:A,no duplication
CYP2D6_xN,CYP2D6_xN_1,CYP2D6_xN_2,G:A,C:C,no duplication
CYP2D6_xN,CYP2D6_xN_1,CYP2D6_xN_2,G:A,C:A,duplication
CYP2D6_*5,CYP2D6_*5_1,CYP2D6_*5_2,A:A,A:A,no deletion
CYP2D6_*5,CYP2D6_*5_1,CYP2D6_*5_2,A:A,A:C,no deletion
CYP2D6_*5,CYP2D6_*5_1,CYP2D6_*5_2,A:G,A:A,no deletion
CYP2D6_*5,CYP2D6_*5_1,CYP2D6_*5_2,A:G,A:C,deletion-het
CYP2D6_*5,CYP2D6_*5_1,CYP2D6_*5_2,G:G,C:C,deletion-hom
